%YAML 1.1
%TAG !u! tag:unity3d.com,2011:
--- !u!21 &2100000
Material:
  serializedVersion: 6
  m_ObjectHideFlags: 0
  m_CorrespondingSourceObject: {fileID: 0}
  m_PrefabInstance: {fileID: 0}
  m_PrefabAsset: {fileID: 0}
  m_Name: PlatformTrigger
  m_Shader: {fileID: 4800000, guid: d38037c83a0ee6a4989b36ba55f670f4, type: 3}
  m_ShaderKeywords: 
  m_LightmapFlags: 4
  m_EnableInstancingVariants: 0
  m_DoubleSidedGI: 0
  m_CustomRenderQueue: -1
  stringTagMap: {}
  disabledShaderPasses: []
  m_SavedProperties:
    serializedVersion: 3
    m_TexEnvs:
    - _Texture2DAsset_CCBAFCD_Out:
        m_Texture: {fileID: 2800000, guid: 41f6aa3c86c77344a88d8534e3511117, type: 3}
        m_Scale: {x: 1, y: 1}
        m_Offset: {x: 0, y: 0}
    - _Texture2DAsset_F223AA9F_Out:
        m_Texture: {fileID: 2800000, guid: 41f6aa3c86c77344a88d8534e3511117, type: 3}
        m_Scale: {x: 1, y: 1}
        m_Offset: {x: 0, y: 0}
    m_Floats:
    - Vector1_B87760C1: 1
    m_Colors:
    - Color_632FFE8A: {r: 1, g: 0, b: 0.83921576, a: 1}
    - Color_782E29A7: {r: 1, g: 0, b: 0.83921576, a: 1}
