%YAML 1.1
%TAG !u! tag:unity3d.com,2011:
--- !u!21 &2100000
Material:
  serializedVersion: 6
  m_ObjectHideFlags: 0
  m_CorrespondingSourceObject: {fileID: 0}
  m_PrefabInstance: {fileID: 0}
  m_PrefabAsset: {fileID: 0}
  m_Name: Shader Graphs_Hologram
  m_Shader: {fileID: 4800000, guid: efa99fe49684e0043b3da2a8bb49ea54, type: 3}
  m_ShaderKeywords: 
  m_LightmapFlags: 4
  m_EnableInstancingVariants: 0
  m_DoubleSidedGI: 0
  m_CustomRenderQueue: -1
  stringTagMap: {}
  disabledShaderPasses: []
  m_SavedProperties:
    serializedVersion: 3
    m_TexEnvs:
    - _SampleTexture2D_A7016DB2_Texture:
        m_Texture: {fileID: 2800000, guid: 91ade1103776545b598f67682f6a4503, type: 3}
        m_Scale: {x: 1, y: 1}
        m_Offset: {x: 0, y: 0}
    - _SampleTexture2D_E5AAB6DE_Texture:
        m_Texture: {fileID: 2800000, guid: 2550b85d8f1ed4879ae9584e40ae2203, type: 3}
        m_Scale: {x: 1, y: 1}
        m_Offset: {x: 0, y: 0}
    m_Floats:
    - Vector1_2AF8D34A: 3
    - Vector1_5C9CCD32: 5
    - Vector1_628B0C40: 0.49
    - Vector1_7930CACE: 0.37
    - Vector1_8D3E11C9: 1.7
    m_Colors:
    - Color_529ADD9E: {r: 0.12297922, g: 0.735849, b: 0.05900677, a: 0}
    - Color_E8A1DEA: {r: 0.11764705, g: 0.31144792, b: 1, a: 0}
